<?xml version="1.0" encoding="utf-8"?>
<!-- Generator: Adobe Illustrator 20.1.0, SVG Export Plug-In . SVG Version: 6.00 Build 0)  -->
<svg version="1.1" id="final-stock-badge" xmlns="http://www.w3.org/2000/svg" xmlns:xlink="http://www.w3.org/1999/xlink" x="0px"
	 y="0px" width="74px" height="74px" viewBox="0 0 74 74" style="enable-background:new 0 0 74 74;" xml:space="preserve">
<style type="text/css">
	.st0{fill:#506A81;stroke:#506A81;stroke-width:4;stroke-miterlimit:10;}
	.st1{opacity:0.1;fill:#FFFFFF;enable-background:new    ;}
	.st2{fill:#FFFFFF;}
</style>
<g>
	<circle class="st0" cx="37" cy="37" r="35"/>
	<path class="st1" d="M37,2C17.7,2,2,17.7,2,37h70C72,17.7,56.3,2,37,2z"/>
</g>
<g>
	<g>
		<path class="st2" d="M52.3,50.9h2.8v-3.3l1.1-1.2l2.9,4.5h3.5l-4.5-6.5l4-4.2h-3.5l-3.5,4.1v-4.1h-2.8V50.9z M51.3,44
			c-0.1-2.6-2.6-4-4.9-4c-3.2,0-5.3,2.5-5.3,5.6s2.1,5.6,5.3,5.6c2.7,0,4.7-1.6,4.9-4.4h-2.8c-0.1,1.2-0.9,2-2.2,2
			c-1.8,0-2.5-1.6-2.5-3.2c0-1.6,0.7-3.2,2.5-3.2c1.2,0,2,0.6,2.2,1.6C48.5,44,51.3,44,51.3,44z M32.8,45.6c0-1.6,0.7-3.2,2.5-3.2
			s2.5,1.6,2.5,3.2c0,1.6-0.7,3.2-2.5,3.2S32.8,47.2,32.8,45.6 M30,45.6c0,3.1,1.9,5.6,5.3,5.6s5.3-2.5,5.3-5.6S38.7,40,35.3,40
			S30,42.5,30,45.6 M30,40.2h-9.2v2.4H24v8.3h2.8v-8.3H30V40.2z M11.4,47.3c0,2.7,2.2,3.8,4.6,3.8s4.7-0.9,4.7-3.6
			c0-1.9-1.6-2.7-3.1-3.1C16,44,14.5,43.8,14.5,43c0-0.7,0.7-0.9,1.3-0.9c0.9,0,1.8,0.3,1.7,1.3h2.8c0-2.4-2.2-3.4-4.3-3.4
			c-2,0-4.4,0.9-4.4,3.3c0,2,1.6,2.7,3.1,3.1c1.5,0.4,3.1,0.6,3.1,1.6c0,0.8-0.9,1.1-1.7,1.1c-1.2,0-2-0.4-2-1.7h-2.7V47.3z"/>
	</g>
	<path class="st2" d="M12,24.9V38h3.4v-5h5.4v-2.6h-5.4v-2.7h6.2V25H12V24.9z M22.5,37.9h3.4v-13h-3.4V37.9z M35.7,24.9V33l0,0
		l-4.5-8.1h-3.5V38h3.2v-8.2l0,0l4.5,8.2h3.5V24.9H35.7z M46,28.5L46,28.5l1.5,4.6h-3L46,28.5z M44.3,24.9L39.4,38h3.5l0.8-2.3h4.6
		l0.8,2.3h3.6l-4.9-13.1H44.3z M53.1,24.9V38h9.5v-3h-6.1V24.9H53.1z"/>
</g>
</svg>
